%YAML 1.1
%TAG !u! tag:unity3d.com,2011:
--- !u!74 &7400000
AnimationClip:
  m_ObjectHideFlags: 0
  m_PrefabParentObject: {fileID: 0}
  m_PrefabInternal: {fileID: 0}
  m_Name: Arrow4
  serializedVersion: 4
  m_AnimationType: 1
  m_Compressed: 0
  m_UseHighQualityCurve: 1
  m_RotationCurves: []
  m_CompressedRotationCurves: []
  m_PositionCurves:
  - curve:
      serializedVersion: 2
      m_Curve:
      - time: 0
        value: {x: -3.1099999, y: .340000004, z: 0}
        inSlope: {x: 0, y: -.420000017, z: 0}
        outSlope: {x: 0, y: -.420000017, z: 0}
        tangentMode: 1
      - time: .833333313
        value: {x: -3.1099999, y: -.00999999978, z: 0}
        inSlope: {x: 0, y: .023999989, z: 0}
        outSlope: {x: 0, y: .023999989, z: 0}
        tangentMode: 0
      - time: 1.66666663
        value: {x: -3.1099999, y: .379999995, z: 0}
        inSlope: {x: 0, y: -.0959999859, z: 0}
        outSlope: {x: 0, y: -.0959999859, z: 0}
        tangentMode: 7536725
      - time: 2.5
        value: {x: -3.1099999, y: -.170000002, z: 0}
        inSlope: {x: 0, y: -.659999967, z: 0}
        outSlope: {x: 0, y: -.659999967, z: 0}
        tangentMode: 3473457
      m_PreInfinity: 2
      m_PostInfinity: 2
    path: 
  m_ScaleCurves: []
  m_FloatCurves: []
  m_PPtrCurves: []
  m_SampleRate: 12
  m_WrapMode: 4
  m_Bounds:
    m_Center: {x: 0, y: 0, z: 0}
    m_Extent: {x: 0, y: 0, z: 0}
  m_ClipBindingConstant:
    genericBindings: []
    pptrCurveMapping: []
  m_AnimationClipSettings:
    serializedVersion: 2
    m_StartTime: 0
    m_StopTime: 2.5
    m_OrientationOffsetY: 0
    m_Level: 0
    m_CycleOffset: 0
    m_LoopTime: 0
    m_LoopBlend: 0
    m_LoopBlendOrientation: 0
    m_LoopBlendPositionY: 0
    m_LoopBlendPositionXZ: 0
    m_KeepOriginalOrientation: 0
    m_KeepOriginalPositionY: 1
    m_KeepOriginalPositionXZ: 0
    m_HeightFromFeet: 0
    m_Mirror: 0
  m_EditorCurves:
  - curve:
      serializedVersion: 2
      m_Curve:
      - time: 0
        value: -3.1099999
        inSlope: 0
        outSlope: 0
        tangentMode: 0
      - time: .833333313
        value: -3.1099999
        inSlope: 0
        outSlope: 0
        tangentMode: 0
      - time: 1.66666663
        value: -3.1099999
        inSlope: 0
        outSlope: 0
        tangentMode: 0
      - time: 2.5
        value: -3.1099999
        inSlope: 0
        outSlope: 0
        tangentMode: 0
      m_PreInfinity: 2
      m_PostInfinity: 2
    attribute: m_LocalPosition.x
    path: 
    classID: 4
    script: {fileID: 0}
  - curve:
      serializedVersion: 2
      m_Curve:
      - time: 0
        value: .340000004
        inSlope: -.420000017
        outSlope: -.420000017
        tangentMode: 0
      - time: .833333313
        value: -.00999999978
        inSlope: .023999989
        outSlope: .023999989
        tangentMode: 0
      - time: 1.66666663
        value: .379999995
        inSlope: -.0959999859
        outSlope: -.0959999859
        tangentMode: 0
      - time: 2.5
        value: -.170000002
        inSlope: -.659999967
        outSlope: -.659999967
        tangentMode: 0
      m_PreInfinity: 2
      m_PostInfinity: 2
    attribute: m_LocalPosition.y
    path: 
    classID: 4
    script: {fileID: 0}
  - curve:
      serializedVersion: 2
      m_Curve:
      - time: 0
        value: 0
        inSlope: 0
        outSlope: 0
        tangentMode: 0
      - time: .833333313
        value: 0
        inSlope: 0
        outSlope: 0
        tangentMode: 0
      - time: 1.66666663
        value: 0
        inSlope: 0
        outSlope: 0
        tangentMode: 0
      - time: 2.5
        value: 0
        inSlope: 0
        outSlope: 0
        tangentMode: 0
      m_PreInfinity: 2
      m_PostInfinity: 2
    attribute: m_LocalPosition.z
    path: 
    classID: 4
    script: {fileID: 0}
  m_EulerEditorCurves: []
  m_Events: []
